<svg xmlns:dc="http://purl.org/dc/elements/1.1/" xmlns:cc="http://creativecommons.org/ns#" xmlns:rdf="http://www.w3.org/1999/02/22-rdf-syntax-ns#" xmlns:svg="http://www.w3.org/2000/svg" xmlns="http://www.w3.org/2000/svg" id="svg2783" version="1.1" viewBox="0 0 33.866668 33.866668" viewport="0 0 1280px 1280px">
  <defs id="defs2777"/>
  <metadata id="metadata2780">
    <rdf:RDF>
      <cc:Work rdf:about="">
        <dc:format>image/svg+xml</dc:format>
        <dc:type rdf:resource="http://purl.org/dc/dcmitype/StillImage"/>
        <dc:title/>
      </cc:Work>
    </rdf:RDF>
  </metadata>
  <g transform="translate(0,-263.13334)" id="layer1">
    <g transform="matrix(1.928454,0,0,1.928454,-63.276199,-97.05863)" id="g2763">
      <g transform="matrix(0.25682408,0,0,0.25581395,24.372758,152.07303)" id="g2800">
        <path id="path5577" d="m 32.941429,170.06751 v -34.32488 h 34.189872 34.189869 v 34.32488 34.32487 H 67.131301 32.941429 Z" style="fill:#f4f4f4;stroke-width:0.63439459"/>
        <path id="path5573" d="m 57.130456,200.50121 c -1.191867,-0.62448 -3.163942,-0.89958 -5.880161,-0.82027 -2.711758,0.0792 -4.699472,-0.19746 -5.907562,-0.82219 -1.001385,-0.51784 -2.412155,-0.94152 -3.135044,-0.94152 -2.164671,0 -7.242478,-4.09966 -7.242478,-5.84734 0,-3.45203 4.034303,-8.24168 7.923373,-9.40687 1.761382,-0.52772 2.34937,-1.06126 2.610948,-2.36915 0.236088,-1.18044 1.359108,-2.38883 3.734645,-4.01854 1.86837,-1.28177 3.860114,-2.65349 4.426097,-3.04826 0.824416,-0.57503 0.878197,-0.87072 0.27044,-1.4869 -0.417241,-0.42302 -0.75862,-1.66645 -0.75862,-2.76318 0,-2.22242 -0.958858,-6.60391 -2.196047,-10.0348 -0.909417,-2.52195 -0.622589,-3.86259 1.013757,-4.73834 1.232625,-0.65968 4.82039,-0.78609 6.29127,-0.22166 1.118502,0.42921 1.338537,4.1812 0.283447,4.83328 -0.416699,0.25753 -0.566432,1.56398 -0.389859,3.4016 0.24075,2.50554 0.130378,2.95349 -0.688983,2.79621 -0.717213,-0.13767 -0.998373,-0.94886 -1.061412,-3.06234 -0.04716,-1.58128 0.157663,-2.87506 0.455172,-2.87506 0.29751,0 0.540927,-0.40966 0.540927,-0.91035 0,-1.46892 -0.813448,-1.01085 -2.27586,1.28157 -1.382789,2.1676 -1.83933,5.94017 -0.796829,6.58447 0.312778,0.19331 0.553667,1.43987 0.535308,2.77013 -0.03804,2.75652 0.724531,3.95085 2.865723,4.48826 2.093546,0.52544 1.927141,2.57608 -0.404237,4.98145 -1.646154,1.6984 -1.843298,2.24082 -1.493031,4.1079 0.430171,2.29301 3.855676,6.43448 5.322109,6.43448 0.483356,0 2.847407,-1.77301 5.253447,-3.94003 2.40604,-2.16701 5.460386,-4.49394 6.787435,-5.17095 2.640451,-1.34706 2.918562,-2.06908 1.430378,-3.71351 -0.702929,-0.77672 -0.871932,-1.67464 -0.59402,-3.15603 l 0.388419,-2.07046 3.780225,-0.0792 c 2.729652,-0.0572 4.370549,0.2494 5.904361,1.10329 1.168275,0.65039 2.98649,1.59995 4.040478,2.11013 3.357108,1.62502 4.614257,3.82209 4.30992,7.5323 -0.235899,2.87588 -0.107398,3.33976 1.154139,4.16635 0.780775,0.51158 1.419592,1.44207 1.419592,2.06776 0,0.62568 0.71189,2.91588 1.581978,5.08932 0.870089,2.17344 1.436857,4.32989 1.259486,4.79211 -0.22105,0.57604 -1.31478,0.82544 -3.476961,0.79282 -2.267113,-0.0342 -3.359712,0.2331 -3.88409,0.95023 -0.624024,0.85341 -1.733171,0.96002 -7.663631,0.73667 -3.813704,-0.14363 -7.717433,-0.43225 -8.674953,-0.64137 -1.55153,-0.33886 -2.527871,-0.0796 -5.851848,1.55383 -1.718135,0.84432 -9.329095,0.54836 -11.207448,-0.43581 z m 14.389162,-30.34948 c 0.132985,-0.25034 0.576292,-1.29737 0.985129,-2.32672 0.451476,-1.13672 1.567843,-2.26473 2.843263,-2.87294 1.15496,-0.55076 2.099927,-1.24969 2.099927,-1.55317 0,-0.70739 -1.518207,-1.28854 -3.366212,-1.28854 -0.836432,0 -1.72674,-0.5241 -2.111462,-1.24296 -0.466409,-0.87149 -1.024,-1.12908 -1.865758,-0.86192 -1.053525,0.33438 -1.149733,0.17859 -0.785621,-1.27215 0.395621,-1.57628 0.333195,-1.63274 -1.3418,-1.21355 -0.966199,0.2418 -2.371207,0.44663 -3.122241,0.45517 -1.540003,0.0175 -1.71747,0.49645 -0.606896,1.63784 0.612946,0.62994 0.479173,0.74066 -0.696639,0.57655 -1.874738,-0.26166 -2.772123,-1.72573 -2.274075,-3.71011 0.465064,-1.85296 1.675334,-2.32496 6.235285,-2.43172 l 3.377438,-0.0791 -0.348529,-2.14773 c -0.54592,-3.36411 -1.659597,-3.84264 -7.962444,-3.42134 -5.391344,0.36037 -5.486978,0.39453 -7.386268,2.63805 -2.162534,2.55448 -2.29787,2.42357 -2.914188,-2.81887 -0.342236,-2.91108 -0.222623,-3.4455 1.086667,-4.85517 0.809179,-0.87122 1.655487,-2.36422 1.880685,-3.31779 0.373385,-1.58105 0.580734,-1.69818 2.354037,-1.32983 2.463264,0.51168 3.382493,0.51055 8.764141,-0.0108 3.184428,-0.30849 4.646198,-0.21448 5.316626,0.34192 0.508561,0.42207 2.189964,1.00379 3.736451,1.2927 4.51611,0.8437 4.650029,1.14342 4.575351,10.23977 -0.03354,4.08562 -2.529181,15.92864 -3.613819,17.14933 -0.521237,0.58662 -1.764807,1.4742 -2.763491,1.97241 -2.045967,1.02066 -2.443794,1.10622 -2.095557,0.45066 z m 0.200159,-13.92839 c -0.281887,-0.73458 -0.557637,-0.81476 -1.063251,-0.30915 -0.505613,0.50562 -0.466857,0.94269 0.149438,1.68528 0.941309,1.1342 1.534391,0.24107 0.913813,-1.37613 z m -14.299411,11.34908 c 0,-0.33379 0.409655,-0.60689 0.910344,-0.60689 0.50069,0 0.910344,0.2731 0.910344,0.60689 0,0.3338 -0.409654,0.6069 -0.910344,0.6069 -0.500689,0 -0.910344,-0.2731 -0.910344,-0.6069 z" style="fill:#4d4d4d;stroke-width:0.6068961"/>
        <path id="path5567" d="m 55.934601,197.96816 c -0.188983,-0.30579 -0.103677,-1.19337 0.189569,-1.97242 0.979912,-2.60325 0.115455,-5.28024 -2.265917,-7.01693 -3.277949,-2.39054 -7.362016,-6.38665 -7.362016,-7.20345 0,-0.39422 0.546743,-1.36149 1.214985,-2.1495 0.740408,-0.87312 1.079093,-1.03996 0.867083,-0.42716 -0.76711,2.2173 4.83193,8.65612 8.130216,9.34964 0.892204,0.1876 2.441499,0.70503 3.442878,1.14985 l 1.820688,0.80876 -1.593578,0.62697 c -1.366675,0.53771 -1.653736,1.10847 -2.016082,4.00859 -0.281338,2.25175 -0.70011,3.38161 -1.253361,3.38161 -0.456972,0 -0.985481,-0.25018 -1.174465,-0.55596 z m 8.752175,-2.02334 c -0.643935,-1.41862 -1.17679,-3.57001 -1.18412,-4.78086 -0.0138,-2.27957 1.252889,-3.97828 2.425913,-3.25331 0.369448,0.22833 1.132445,0.031 1.695549,-0.43851 0.563104,-0.46952 3.709854,-1.89591 6.992779,-3.16978 3.282923,-1.27386 7.33864,-3.23785 9.012703,-4.36441 1.674063,-1.12656 3.299019,-2.04829 3.611014,-2.04829 1.266239,0 -0.874267,2.48485 -3.43143,3.98345 -1.495929,0.87667 -2.71987,1.73729 -2.71987,1.91249 0,0.1752 2.048274,0.19307 4.55172,0.0397 2.503446,-0.15335 4.551721,-0.0606 4.551721,0.20613 0,0.26672 0.643722,1.11048 1.430493,1.87502 0.786772,0.76454 1.59396,1.85875 1.793751,2.43158 0.301875,0.86552 0.07876,0.98461 -1.320356,0.70479 -1.379225,-0.27585 -2.005267,0.0385 -3.462715,1.73872 -3.241607,3.78156 -4.510134,5.56956 -4.510134,6.35706 0,0.42824 -0.273103,0.77861 -0.606896,0.77861 -1.898099,0 0.656295,-5.34463 4.253706,-8.90015 1.582733,-1.5643 2.383744,-2.80893 2.101582,-3.26548 -0.636402,-1.02972 -6.94985,-0.36465 -14.548385,1.53254 -3.337929,0.83341 -6.661744,1.51852 -7.386256,1.52247 -1.691478,0.009 -2.349716,2.66848 -1.456618,5.88469 0.812052,2.92435 0.815182,3.83282 0.01321,3.83282 -0.350113,0 -1.163425,-1.16068 -1.807359,-2.5793 z m -23.891121,-4.44964 c -0.202608,-0.52799 -0.368379,-1.48385 -0.368379,-2.12413 0,-1.59632 -0.612578,-1.46087 -2.283155,0.50481 l -1.418406,1.66896 0.39457,-1.51724 c 0.217014,-0.83448 1.322969,-2.46855 2.457677,-3.63126 l 2.063106,-2.11402 v 2.18988 c 0,1.20444 0.17069,3.04333 0.37931,4.08643 0.394383,1.97192 -0.550228,2.69428 -1.224723,0.93657 z m 11.931096,-8.46275 c -0.705351,-0.49404 -1.60329,-1.8704 -1.995421,-3.05857 -0.611559,-1.85304 -0.561627,-2.32753 0.351064,-3.33605 0.585217,-0.64665 1.438371,-1.17574 1.895898,-1.17574 0.690144,0 0.679655,0.29435 -0.06156,1.7277 -0.998653,1.93119 -0.67779,4.25968 0.743708,5.39706 1.383468,1.10695 0.566902,1.49666 -0.933688,0.4456 z m 16.831537,0.61641 c 0,-0.46245 4.858716,-3.53035 5.142179,-3.24689 0.144285,0.14429 -0.95368,0.99684 -2.439921,1.89456 -1.486242,0.89773 -2.702258,1.50627 -2.702258,1.35233 z m 20.485734,-2.57298 c -0.157574,-0.91793 -0.490893,-2.14689 -0.74071,-2.73103 -0.279449,-0.65343 -0.18994,-1.06207 0.232637,-1.06207 0.775132,0 1.870598,2.51103 1.870598,4.28778 0,1.78041 -1.036584,1.40406 -1.362525,-0.49468 z m -13.202981,-2.61027 c 0,-0.62111 3.582474,-2.39662 4.835676,-2.39662 1.403972,0 0.489748,1.33282 -1.478255,2.1551 -2.498273,1.04385 -3.357421,1.10565 -3.357421,0.24152 z m 5.765513,-4.8242 c -0.474703,-0.76809 0.328712,-0.76809 1.51724,0 0.784527,0.507 0.768508,0.58959 -0.115907,0.5976 -0.564438,0.005 -1.195038,-0.26381 -1.401333,-0.5976 z" style="fill:#333333;stroke-width:0.6068961"/>
      </g>
    </g>
  </g>
</svg>